${AnsiColor.BRIGHT_YELLOW}

  _   _  __   __        _____         _______  ______ __          __   __     __
 | \ | | \ \ / /       / ____|    /\ |__   __||  ____|\ \        / //\ \ \   / /
 |  \| |  \ V /______ | |  __    /  \   | |   | |__    \ \  /\  / //  \ \ \_/ /
 | . ` |   > <|______|| | |_ |  / /\ \  | |   |  __|    \ \/  \/ // /\ \ \   /
 | |\  |  / . \       | |__| | / ____ \ | |   | |____    \  /\  // ____ \ | |
 |_| \_| /_/ \_\       \_____|/_/    \_\|_|   |______|    \/  \//_/    \_\|_|
